Format and reshape your data in R with the tidyverse
…
# click to execute code
install.packages("fivethirtyeight")
library(fivethirtyeight)

Now we can assign the bob_ross data frame into the BobRoss object.

# click to execute code
BobRoss <- fivethirtyeight::bob_ross

# click to execute code
# print data
BobRoss

#> # A tibble: 403 x 71
#>    episode season episode_num title apple_frame aurora_borealis  barn beach
#>    <chr>    <dbl>       <dbl> <chr>       <int>           <int> <int> <int>
#>  1 S01E01       1           1 A WA           0               0     0     0
#>  2 S01E02       1           2 MT.            0               0     0     0
#>  3 S01E03       1           3 EBON           0               0     0     0
#>  4 S01E04       1           4 WINT           0               0     0     0
#>  5 S01E05       1           5 QUIE           0               0     0     0
#>  6 S01E06       1           6 WINT           0               0     0     0
#>  7 S01E07       1           7 AUTU           0               0     0     0
#>  8 S01E08       1           8 PEAC           0               0     0     0
#>  9 S01E09       1           9 SEAS           0               0     0     1
#> 10 S01E10       1          10 MOUN           0               0     0     0
#> #  with 393 more rows, and 63 more variables: boat <int>, bridge <int>,
#> #   building <int>, bushes <int>, cabin <int>, cactus <int>,
#> #   circle_frame <int>, cirrus <int>, cliff <int>, clouds <int>,
#> #   conifer <int>, cumulus <int>, deciduous <int>, diane_andre <int>,
#> #   dock <int>, double_oval_frame <int>, farm <int>, fence <int>, fire <int>,
#> #   florida_frame <int>, flowers <int>, fog <int>, framed <int>, grass <int>,
#> #   guest <int>, half_circle_frame <int>, half_oval_frame <int>, hills <int>,
#> #   lake <int>, lakes <int>, lighthouse <int>, mill <int>, moon <int>,
#> #   mountain <int>, mountains <int>, night <int>, ocean <int>,
…
            "WINTER MIST",      1L,      1L,
           "QUIET STREAM",      0L,      0L,
            "WINTER MOON",      0L,      0L,
       "AUTUMN MOUNTAINS",      0L,      0L,
        "PEACEFUL VALLEY",      1L,      0L,
               "SEASCAPE",      0L,      1L,
          "MOUNTAIN LAKE",      1L,      0L,
            "WINTER GLOW",      0L,      0L,
               "SNOWFALL",      0L,      1L,
      "FINAL REFLECTIONS",      1L,      0L,
            "MEADOW LAKE",      1L,      0L,
             "WINTER SUN",      0L,      0L)
BobRossTibble

#> # A tibble: 15 x 3
#>    title               bushes clouds
#>    <chr>                <int>  <int>
#>  1 A WALK IN THE WOODS      1      0
#>  2 MT. MCKINLEY             0      1
#>  3 EBONY SUNSET             0      0
#>  4 WINTER MIST              1      1
#>  5 QUIET STREAM             0      0
#>  6 WINTER MOON              0      0
#>  7 AUTUMN MOUNTAINS         0      0
#>  8 PEACEFUL VALLEY          1      0
#>  9 SEASCAPE                 0      1
#> 10 MOUNTAIN LAKE            1      0
#> #  with 5 more rows
…
