…
    #> $ steve_ross         <int> 0, 0, 0, 0, 0, 0, 0, 0, 0, 0, 0, 0, 0, 0, 0, 0, …
    #> $ structure          <int> 0, 0, 1, 0, 0, 1, 0, 0, 0, 0, 0, 0, 0, 0, 0, 0, …
    #> $ sun                <int> 0, 0, 1, 0, 0, 0, 0, 0, 0, 0, 0, 0, 0, 0, 1, 1, …
    #> $ tomb_frame         <int> 0, 0, 0, 0, 0, 0, 0, 0, 0, 0, 0, 0, 0, 0, 0, 0, …
    #> $ tree               <int> 1, 1, 1, 1, 1, 1, 1, 1, 0, 1, 1, 1, 1, 1, 1, 1, …
    #> $ trees              <int> 1, 1, 1, 1, 1, 1, 1, 1, 0, 1, 1, 1, 1, 1, 1, 1, …
    #> $ triple_frame       <int> 0, 0, 0, 0, 0, 0, 0, 0, 0, 0, 0, 0, 0, 0, 0, 0, …
    #> $ waterfall          <int> 0, 0, 0, 0, 0, 0, 0, 0, 0, 0, 0, 0, 0, 0, 0, 0, …
    #> $ waves              <int> 0, 0, 0, 0, 0, 0, 0, 0, 0, 0, 0, 0, 0, 0, 0, 1, …
    #> $ windmill           <int> 0, 0, 0, 0, 0, 0, 0, 0, 0, 0, 0, 0, 0, 0, 0, 0, …
    #> $ window_frame       <int> 0, 0, 0, 0, 0, 0, 0, 0, 0, 0, 0, 0, 0, 0, 0, 0, …
    #> $ winter             <int> 0, 1, 1, 0, 0, 1, 0, 0, 0, 0, 0, 0, 0, 0, 0, 0, …
    #> $ wood_framed        <int> 0, 0, 0, 0, 0, 0, 0, 0, 0, 0, 0, 0, 0, 0, 0, 0, …

    #> # A tibble: 27,001 x 6
    #>    episode season episode_num title               object          present
    #>    <chr>    <dbl>       <dbl> <chr>               <chr>             <int>
    #>  1 S01E01       1           1 A WALK IN THE WOODS apple_frame           0
    #>  2 S01E01       1           1 A WALK IN THE WOODS aurora_borealis       0
    #>  3 S01E01       1           1 A WALK IN THE WOODS barn                  0
    #>  4 S01E01       1           1 A WALK IN THE WOODS beach                 0
    #>  5 S01E01       1           1 A WALK IN THE WOODS boat                  0
    #>  6 S01E01       1           1 A WALK IN THE WOODS bridge                0
    #>  7 S01E01       1           1 A WALK IN THE WOODS building              0
    #>  8 S01E01       1           1 A WALK IN THE WOODS bushes                1
    #>  9 S01E01       1           1 A WALK IN THE WOODS cabin                 0
    #> 10 S01E01       1           1 A WALK IN THE WOODS cactus                0
    #> # … with 26,991 more rows
…
