…
1. `data` = the name of the dataset (`BobRossEpi`)  
2. `col` = the name of the column to separate (`episode`),  
3. `into` = the new columns for the separated information (combine these with `c("season", "episode")`) 

Copy the code below and fill in the `into` section before pasting it back into the terminal and running it. 

```
tidyr::separate(data = BobRossEpi, col = episode, into = c("______", "_______"))
```{{copy}}

If you've completed this step correctly, you should see the following dataset: 

```
# A tibble: 27,001 x 5
   season episode title               object          present
   <chr>  <chr>   <chr>               <chr>             <dbl>
 1 S01    E01     A WALK IN THE WOODS apple_frame           0
 2 S01    E01     A WALK IN THE WOODS aurora_borealis       0
 3 S01    E01     A WALK IN THE WOODS barn                  0
 4 S01    E01     A WALK IN THE WOODS beach                 0
 5 S01    E01     A WALK IN THE WOODS boat                  0
 6 S01    E01     A WALK IN THE WOODS bridge                0
 7 S01    E01     A WALK IN THE WOODS building              0
 8 S01    E01     A WALK IN THE WOODS bushes                1
 9 S01    E01     A WALK IN THE WOODS cabin                 0
10 S01    E01     A WALK IN THE WOODS cactus                0
# … with 26,991 more rows
```
…
