…
3. the new column name (`col = episode_new`) 

4. And `sep =`, a regular expression pattern to place between the two columns we're uniting (in this case, it's `E`). 

Fill in the code below to use `unite()`.

```
# click to copy code
unite(data = BobRossStep8, season_text, episode_text, col = '___________', sep = "E")
```{{copy}}

If you've filled in the function correctly, you should see the following data set:

```
# A tibble: 27,001 x 4
   episode_new title               object          present
   <chr>       <chr>               <chr>             <dbl>
 1 S01E01      A WALK IN THE WOODS apple_frame           0
 2 S01E01      A WALK IN THE WOODS aurora_borealis       0
 3 S01E01      A WALK IN THE WOODS barn                  0
 4 S01E01      A WALK IN THE WOODS beach                 0
 5 S01E01      A WALK IN THE WOODS boat                  0
 6 S01E01      A WALK IN THE WOODS bridge                0
 7 S01E01      A WALK IN THE WOODS building              0
 8 S01E01      A WALK IN THE WOODS bushes                1
 9 S01E01      A WALK IN THE WOODS cabin                 0
10 S01E01      A WALK IN THE WOODS cactus                0
# … with 26,991 more rows
```
…
