…
```r
# click to execute code
BobRoss <- fivethirtyeight::bob_ross
```


```r
# click to execute code
# print data
BobRoss
```

```
#> # A tibble: 403 x 71
#>    episode season episode_num title apple_frame aurora_borealis  barn beach
#>    <chr>    <dbl>       <dbl> <chr>       <int>           <int> <int> <int>
#>  1 S01E01       1           1 A WA…           0               0     0     0
#>  2 S01E02       1           2 MT. …           0               0     0     0
#>  3 S01E03       1           3 EBON…           0               0     0     0
#>  4 S01E04       1           4 WINT…           0               0     0     0
#>  5 S01E05       1           5 QUIE…           0               0     0     0
#>  6 S01E06       1           6 WINT…           0               0     0     0
#>  7 S01E07       1           7 AUTU…           0               0     0     0
#>  8 S01E08       1           8 PEAC…           0               0     0     0
#>  9 S01E09       1           9 SEAS…           0               0     0     1
#> 10 S01E10       1          10 MOUN…           0               0     0     0
#> # … with 393 more rows, and 63 more variables: boat <int>, bridge <int>,
#> #   building <int>, bushes <int>, cabin <int>, cactus <int>,
#> #   circle_frame <int>, cirrus <int>, cliff <int>, clouds <int>,
#> #   conifer <int>, cumulus <int>, deciduous <int>, diane_andre <int>,
#> #   dock <int>, double_oval_frame <int>, farm <int>, fence <int>, fire <int>,
#> #   florida_frame <int>, flowers <int>, fog <int>, framed <int>, grass <int>,
#> #   guest <int>, half_circle_frame <int>, half_oval_frame <int>, hills <int>,
#> #   lake <int>, lakes <int>, lighthouse <int>, mill <int>, moon <int>,
#> #   mountain <int>, mountains <int>, night <int>, ocean <int>,
…
```
#> # A tibble: 15 x 3
#>    title               bushes clouds
#>    <chr>                <int>  <int>
#>  1 A WALK IN THE WOODS      1      0
#>  2 MT. MCKINLEY             0      1
#>  3 EBONY SUNSET             0      0
#>  4 WINTER MIST              1      1
#>  5 QUIET STREAM             0      0
#>  6 WINTER MOON              0      0
#>  7 AUTUMN MOUNTAINS         0      0
#>  8 PEACEFUL VALLEY          1      0
#>  9 SEASCAPE                 0      1
#> 10 MOUNTAIN LAKE            1      0
#> # … with 5 more rows
```
…
```
#> [1] 403
```

*distinct rows (note this returns a `tibble`!)*


```r
# click to copy code
dplyr::distinct(.data = BobRoss)
```

```
#> # A tibble: 403 x 71
#>    episode season episode_num title apple_frame aurora_borealis  barn beach
#>    <chr>    <dbl>       <dbl> <chr>       <int>           <int> <int> <int>
#>  1 S01E01       1           1 A WA…           0               0     0     0
#>  2 S01E02       1           2 MT. …           0               0     0     0
#>  3 S01E03       1           3 EBON…           0               0     0     0
#>  4 S01E04       1           4 WINT…           0               0     0     0
#>  5 S01E05       1           5 QUIE…           0               0     0     0
#>  6 S01E06       1           6 WINT…           0               0     0     0
#>  7 S01E07       1           7 AUTU…           0               0     0     0
#>  8 S01E08       1           8 PEAC…           0               0     0     0
#>  9 S01E09       1           9 SEAS…           0               0     0     1
#> 10 S01E10       1          10 MOUN…           0               0     0     0
#> # … with 393 more rows, and 63 more variables: boat <int>, bridge <int>,
#> #   building <int>, bushes <int>, cabin <int>, cactus <int>,
#> #   circle_frame <int>, cirrus <int>, cliff <int>, clouds <int>,
#> #   conifer <int>, cumulus <int>, deciduous <int>, diane_andre <int>,
#> #   dock <int>, double_oval_frame <int>, farm <int>, fence <int>, fire <int>,
#> #   florida_frame <int>, flowers <int>, fog <int>, framed <int>, grass <int>,
#> #   guest <int>, half_circle_frame <int>, half_oval_frame <int>, hills <int>,
#> #   lake <int>, lakes <int>, lighthouse <int>, mill <int>, moon <int>,
#> #   mountain <int>, mountains <int>, night <int>, ocean <int>,
…
Copy the code below and replace `c("______", "_______")` with the two new column names before pasting it back into the Terminal and running it.


```r
# click to copy code
separate(data = BobRossStep7, col = episode_info, into = c("______", "_______"))
```

If you've completed this step correctly, you should see the following dataset:


```r
# A tibble: 27,001 x 5
   season episode title               object          present
   <chr>  <chr>   <chr>               <chr>             <dbl>
 1 S01    E01     A WALK IN THE WOODS apple_frame           0
 2 S01    E01     A WALK IN THE WOODS aurora_borealis       0
 3 S01    E01     A WALK IN THE WOODS barn                  0
 4 S01    E01     A WALK IN THE WOODS beach                 0
 5 S01    E01     A WALK IN THE WOODS boat                  0
 6 S01    E01     A WALK IN THE WOODS bridge                0
 7 S01    E01     A WALK IN THE WOODS building              0
 8 S01    E01     A WALK IN THE WOODS bushes                1
 9 S01    E01     A WALK IN THE WOODS cabin                 0
10 S01    E01     A WALK IN THE WOODS cactus                0
# … with 26,991 more rows
```
…
4. And `sep =`, a regular expression pattern to place between the two columns we're uniting (in this case, it's `E`). 

Replace `col = '___________'` below with the new united column name before entering and running it in the Terminal.


```r
# click to copy code
unite(data = BobRossStep8, season_text, episode_text, col = '___________', sep = "E")
```

If you've filled in the function correctly, you should see the following data set:


```r
# A tibble: 27,001 x 4
   episode_new title               object          present
   <chr>       <chr>               <chr>             <dbl>
 1 S01E01      A WALK IN THE WOODS apple_frame           0
 2 S01E01      A WALK IN THE WOODS aurora_borealis       0
 3 S01E01      A WALK IN THE WOODS barn                  0
 4 S01E01      A WALK IN THE WOODS beach                 0
 5 S01E01      A WALK IN THE WOODS boat                  0
 6 S01E01      A WALK IN THE WOODS bridge                0
 7 S01E01      A WALK IN THE WOODS building              0
 8 S01E01      A WALK IN THE WOODS bushes                1
 9 S01E01      A WALK IN THE WOODS cabin                 0
10 S01E01      A WALK IN THE WOODS cactus                0
# … with 26,991 more rows
```
…
#### Changing variable formats

We're going to use the `dplyr::mutate()` function to change the format of a character variable (`<chr>`) to numeric (`<dbl>`). So if we run the code below, it should create `episode_num`, which is a numerical version `episode_txt` (converting `<chr>` to `<dbl>` to numeric).


```r
# click to execute code
dplyr::mutate(.data = BobRossStep9, episode_num = as.numeric(episode_txt))
```

```
#> # A tibble: 27,001 x 6
#>    episode_txt season_txt title              object        present episode_num
#>    <chr>       <chr>      <chr>              <chr>           <dbl>       <dbl>
#>  1 01          01         A WALK IN THE WOO… apple_frame         0           1
#>  2 01          01         A WALK IN THE WOO… aurora_borea…       0           1
#>  3 01          01         A WALK IN THE WOO… barn                0           1
#>  4 01          01         A WALK IN THE WOO… beach               0           1
#>  5 01          01         A WALK IN THE WOO… boat                0           1
#>  6 01          01         A WALK IN THE WOO… bridge              0           1
#>  7 01          01         A WALK IN THE WOO… building            0           1
#>  8 01          01         A WALK IN THE WOO… bushes              1           1
#>  9 01          01         A WALK IN THE WOO… cabin               0           1
#> 10 01          01         A WALK IN THE WOO… cactus              0           1
#> # … with 26,991 more rows
```

We can see this creates a new variable, but we still have `episode_txt`. Next, we'll convert the `title` to title case using the `stringr` package (also from the `tidyverse`), and we'll overwrite the existing variable by naming the new variable `title` as well. 


```r
dplyr::mutate(.data = BobRossStep9, 
              # first new variable 
              episode_num = base::as.numeric(episode_txt),
              # second new variable 
              title = stringr::str_to_title(title))
```

```
#> # A tibble: 27,001 x 6
#>    episode_txt season_txt title              object        present episode_num
#>    <chr>       <chr>      <chr>              <chr>           <dbl>       <dbl>
#>  1 01          01         A Walk In The Woo… apple_frame         0           1
#>  2 01          01         A Walk In The Woo… aurora_borea…       0           1
#>  3 01          01         A Walk In The Woo… barn                0           1
#>  4 01          01         A Walk In The Woo… beach               0           1
#>  5 01          01         A Walk In The Woo… boat                0           1
#>  6 01          01         A Walk In The Woo… bridge              0           1
#>  7 01          01         A Walk In The Woo… building            0           1
#>  8 01          01         A Walk In The Woo… bushes              1           1
#>  9 01          01         A Walk In The Woo… cabin               0           1
#> 10 01          01         A Walk In The Woo… cactus              0           1
#> # … with 26,991 more rows
```
…
```r
dplyr::mutate(.data = BobRossStep9, 
              # first new variable 
              episode_num = base::as.numeric(episode_txt),
              # second variable change
              title = stringr::str_to_title(title),
              # third variable change
              object = stringr::str_replace_all(string = object, 
                                       pattern = "_", 
                                       replacement = " "))
```

```
#> # A tibble: 27,001 x 6
#>    episode_txt season_txt title              object        present episode_num
#>    <chr>       <chr>      <chr>              <chr>           <dbl>       <dbl>
#>  1 01          01         A Walk In The Woo… apple frame         0           1
#>  2 01          01         A Walk In The Woo… aurora borea…       0           1
#>  3 01          01         A Walk In The Woo… barn                0           1
#>  4 01          01         A Walk In The Woo… beach               0           1
#>  5 01          01         A Walk In The Woo… boat                0           1
#>  6 01          01         A Walk In The Woo… bridge              0           1
#>  7 01          01         A Walk In The Woo… building            0           1
#>  8 01          01         A Walk In The Woo… bushes              1           1
#>  9 01          01         A Walk In The Woo… cabin               0           1
#> 10 01          01         A Walk In The Woo… cactus              0           1
#> # … with 26,991 more rows
```
…
We'll be using `stringr::str_detect()` again to find all the paintings of `mountains`, `trees`, and `bushes`, but we've dropped the names of arguments, so it's easier to read.


```r
dplyr::mutate(.data = BobRossStep11,
          object_category = case_when(
              season == 1 & str_detect(object, "mountain") ~ "mountains",
              season == 1 & str_detect(object, "deciduous") ~ "trees",
              season == 1 & str_detect(object, "tree") ~ "trees",
              season == 1 & str_detect(object, "conifer") ~ "trees",
              season == 1 & str_detect(object, "bush") ~ "bushes"))
```

```
#> # A tibble: 25 x 7
#>    episode season episode_num title           object   present object_category
#>    <chr>    <dbl>       <dbl> <chr>           <chr>      <dbl> <chr>          
#>  1 S01E01       1           1 A Walk In The … bushes         1 bushes         
#>  2 S01E01       1           1 A Walk In The … deciduo…       1 trees          
#>  3 S01E01       1           1 A Walk In The … grass          1 <NA>           
#>  4 S01E01       1           1 A Walk In The … river          1 <NA>           
#>  5 S01E01       1           1 A Walk In The … tree           1 trees          
#>  6 S01E01       1           1 A Walk In The … trees          1 trees          
#>  7 S01E02       1           2 Mt. Mckinley    cabin          1 <NA>           
#>  8 S01E02       1           2 Mt. Mckinley    clouds         1 <NA>           
#>  9 S01E02       1           2 Mt. Mckinley    conifer        1 trees          
#> 10 S01E02       1           2 Mt. Mckinley    mountain       1 mountains      
#> # … with 15 more rows
```
…
```r
dplyr::mutate(.data = BobRossStep11,
          object_category = case_when(
              season == 1 & str_detect(object, "mountain") ~ "mountains",
              season == 1 & str_detect(object, "deciduous") ~ "trees",
              season == 1 & str_detect(object, "tree") ~ "trees",
              season == 1 & str_detect(object, "conifer") ~ "trees",
              season == 1 & str_detect(object, "bush") ~ "bushes",
              season == 1 & str_detect(object, "river") ~ "water",
              season == 1 & str_detect(object, "barn") ~ "buildings",
              season == 1 & str_detect(object, "cabin") ~ "buildings"))
```

```
#> # A tibble: 25 x 7
#>    episode season episode_num title           object   present object_category
#>    <chr>    <dbl>       <dbl> <chr>           <chr>      <dbl> <chr>          
#>  1 S01E01       1           1 A Walk In The … bushes         1 bushes         
#>  2 S01E01       1           1 A Walk In The … deciduo…       1 trees          
#>  3 S01E01       1           1 A Walk In The … grass          1 <NA>           
#>  4 S01E01       1           1 A Walk In The … river          1 water          
#>  5 S01E01       1           1 A Walk In The … tree           1 trees          
#>  6 S01E01       1           1 A Walk In The … trees          1 trees          
#>  7 S01E02       1           2 Mt. Mckinley    cabin          1 buildings      
#>  8 S01E02       1           2 Mt. Mckinley    clouds         1 <NA>           
#>  9 S01E02       1           2 Mt. Mckinley    conifer        1 trees          
#> 10 S01E02       1           2 Mt. Mckinley    mountain       1 mountains      
#> # … with 15 more rows
```
…
```r
BobRossStep12 <- dplyr::mutate(.data = BobRossStep12,
              painting_cats = case_when(
              present == 1 & str_detect(object, "cabin") ~ "Cabins",
              present == 1 & str_detect(object, "frame") ~ "Frames",
              present == 1 & str_detect(object, "tree|deciduous") ~ "Trees",
              present == 1 & str_detect(object, "cloud|cumulus") ~ "Clouds",
              TRUE ~ NA_character_))
BobRossStep12
```

```
#> # A tibble: 16 x 7
#>    episode season episode_num title           object     present painting_cats
#>    <chr>    <dbl>       <dbl> <chr>           <chr>        <dbl> <chr>        
#>  1 S04E04       4           4 WINTER SAWSCAPE cabin            1 Cabins       
#>  2 S04E04       4           4 WINTER SAWSCAPE circle_fr…       1 Frames       
#>  3 S04E04       4           4 WINTER SAWSCAPE clouds           1 Clouds       
#>  4 S04E04       4           4 WINTER SAWSCAPE cumulus          1 Clouds       
#>  5 S04E04       4           4 WINTER SAWSCAPE deciduous        1 Trees        
#>  6 S04E04       4           4 WINTER SAWSCAPE framed           1 Frames       
#>  7 S04E04       4           4 WINTER SAWSCAPE tree             1 Trees        
#>  8 S04E04       4           4 WINTER SAWSCAPE trees            1 Trees        
#>  9 S04E05       4           5 EVENING SEASCA… cabin           NA <NA>         
#> 10 S04E05       4           5 EVENING SEASCA… circle_fr…      NA <NA>         
#> # … with 6 more rows
```
…
If we want to count two variables, we simply separate them with a comma (see below).


```r
# the n is the tally, but for both variables
dplyr::count(BobRossStep12, object, painting_cats)
```

```
#> # A tibble: 12 x 3
#>    object       painting_cats     n
#>    <chr>        <chr>         <int>
#>  1 cabin        Cabins            1
#>  2 cabin        <NA>              1
#>  3 circle_frame Frames            1
#>  4 circle_frame <NA>              1
#>  5 clouds       Clouds            2
#>  6 cumulus      Clouds            2
#>  7 deciduous    Trees             1
#>  8 deciduous    <NA>              1
#>  9 framed       Frames            1
#> 10 framed       <NA>              1
#> # … with 2 more rows
```
…
