…
In order to re-create these graphs, we'll need to restructure the `Brexit` data with the `tidyr::pivot_longer()` function we learned about in the last [scenario]().

Complete the code below by filling in the `cols = ` argument as `-date`, the `names_to = ` as `"poll"`, and the `values_to = ` as `"percent"`.

```
Brexit %>% pivot_longer(cols = , names_to =, values_to =)
```{{copy}}

We should end up with a dataset that has three variables: `date`, `poll`, and `percent`. The data below display the top six rows you should see when you've used `tidyr::pivot()` correctly. 

```
# A tibble: 170 x 3
   date       poll                     percent
   <date>     <chr>                      <dbl>
 1 2016-08-02 percent_responding_right      46
 2 2016-08-02 percent_responding_wrong      42
 3 2016-08-09 percent_responding_right      45
 4 2016-08-09 percent_responding_wrong      44
 5 2016-08-17 percent_responding_right      46
 6 2016-08-17 percent_responding_wrong      43
 7 2016-08-23 percent_responding_right      45
 8 2016-08-23 percent_responding_wrong      43
 9 2016-08-31 percent_responding_right      47
10 2016-08-31 percent_responding_wrong      44
# … with 160 more rows
```
…
