…
As we noted earlier, functions are like verbs in the R language, and the data we've created is the object. Similar to English grammar, the verbs (functions) do things to the objects. We can build data objects in R using a variety of methods, but typically we'll be loading data from an outside source into the R environment.


```{r , eval=FALSE}
# click to execute code
# print data
BobRoss
```

We should pay attention to the information printed in `BobRoss`. As we can see, it's contained in a `tibble`.

```
# A tibble: 403 x 71
   episode season episode_num title apple_frame aurora_borealis  barn beach
   <chr>    <dbl>       <dbl> <chr>       <int>           <int> <int> <int>
 1 S01E01       1           1 A WA…           0               0     0     0
 2 S01E02       1           2 MT. …           0               0     0     0
 3 S01E03       1           3 EBON…           0               0     0     0
 4 S01E04       1           4 WINT…           0               0     0     0
 5 S01E05       1           5 QUIE…           0               0     0     0
 6 S01E06       1           6 WINT…           0               0     0     0
 7 S01E07       1           7 AUTU…           0               0     0     0
 8 S01E08       1           8 PEAC…           0               0     0     0
 9 S01E09       1           9 SEAS…           0               0     0     1
10 S01E10       1          10 MOUN…           0               0     0     0
# … with 393 more rows, and 63 more variables: boat <int>, bridge <int>,
#   building <int>, bushes <int>, cabin <int>, cactus <int>,
#   circle_frame <int>, cirrus <int>, cliff <int>, clouds <int>, conifer <int>,
#   cumulus <int>, deciduous <int>, diane_andre <int>, dock <int>,
#   double_oval_frame <int>, farm <int>, fence <int>, fire <int>,
#   florida_frame <int>, flowers <int>, fog <int>, framed <int>, grass <int>,
#   guest <int>, half_circle_frame <int>, half_oval_frame <int>, hills <int>,
#   lake <int>, lakes <int>, lighthouse <int>, mill <int>, moon <int>,
#   mountain <int>, mountains <int>, night <int>, ocean <int>,
…
```{r , eval=FALSE}
# click to copy code
separate(data = BobRossStep7, col = episode_info, into = c("______", "_______"))
```

```{r}
separate(data = BobRossStep7, col = episode_info, into = c("season", "episode"))
```


If you've completed this step correctly, you should see the following dataset:

```r
# A tibble: 27,001 x 5
   season episode title               object          present
   <chr>  <chr>   <chr>               <chr>             <dbl>
 1 S01    E01     A WALK IN THE WOODS apple_frame           0
 2 S01    E01     A WALK IN THE WOODS aurora_borealis       0
 3 S01    E01     A WALK IN THE WOODS barn                  0
 4 S01    E01     A WALK IN THE WOODS beach                 0
 5 S01    E01     A WALK IN THE WOODS boat                  0
 6 S01    E01     A WALK IN THE WOODS bridge                0
 7 S01    E01     A WALK IN THE WOODS building              0
 8 S01    E01     A WALK IN THE WOODS bushes                1
 9 S01    E01     A WALK IN THE WOODS cabin                 0
10 S01    E01     A WALK IN THE WOODS cactus                0
# … with 26,991 more rows
```
…
```{r , eval=FALSE}
# click to copy code
unite(data = BobRossStep8, season_text, episode_text, col = '___________', sep = "E")
```

```{r}
unite(data = BobRossStep8, season_text, episode_text, col = 'episode_new', sep = "E")
```


If you've filled in the function correctly, you should see the following data set:

```r
# A tibble: 27,001 x 4
   episode_new title               object          present
   <chr>       <chr>               <chr>             <dbl>
 1 S01E01      A WALK IN THE WOODS apple_frame           0
 2 S01E01      A WALK IN THE WOODS aurora_borealis       0
 3 S01E01      A WALK IN THE WOODS barn                  0
 4 S01E01      A WALK IN THE WOODS beach                 0
 5 S01E01      A WALK IN THE WOODS boat                  0
 6 S01E01      A WALK IN THE WOODS bridge                0
 7 S01E01      A WALK IN THE WOODS building              0
 8 S01E01      A WALK IN THE WOODS bushes                1
 9 S01E01      A WALK IN THE WOODS cabin                 0
10 S01E01      A WALK IN THE WOODS cactus                0
# … with 26,991 more rows
```
…
